^C:\USERS\USER\SOURCE\REPOS\UNIVERC++\UNIVERC++\ZEROLIST.CPP
/c /ZI /JMC /nologo /W3 /WX- /diagnostics:classic /sdl /Od /Oy- /D _MBCS /Gm- /EHsc /RTC1 /MDd /GS /fp:precise /permissive- /Zc:wchar_t /Zc:forScope /Zc:inline /openmp /Fo"DEBUG\\" /Fd"DEBUG\VC141.PDB" /Gd /TP /analyze- /FC C:\USERS\USER\SOURCE\REPOS\UNIVERC++\UNIVERC++\ZEROLIST.CPP
^C:\USERS\USER\SOURCE\REPOS\UNIVERC++\UNIVERC++\LIST.CPP
/c /ZI /JMC /nologo /W3 /WX- /diagnostics:classic /sdl /Od /Oy- /D _MBCS /Gm- /EHsc /RTC1 /MDd /GS /fp:precise /permissive- /Zc:wchar_t /Zc:forScope /Zc:inline /openmp /Fo"DEBUG\\" /Fd"DEBUG\VC141.PDB" /Gd /TP /analyze- /FC C:\USERS\USER\SOURCE\REPOS\UNIVERC++\UNIVERC++\LIST.CPP
^C:\USERS\USER\SOURCE\REPOS\UNIVERC++\UNIVERC++\MAIN.CPP
/c /ZI /JMC /nologo /W3 /WX- /diagnostics:classic /sdl /Od /Oy- /D _MBCS /Gm- /EHsc /RTC1 /MDd /GS /fp:precise /permissive- /Zc:wchar_t /Zc:forScope /Zc:inline /openmp /Fo"DEBUG\\" /Fd"DEBUG\VC141.PDB" /Gd /TP /analyze- /FC C:\USERS\USER\SOURCE\REPOS\UNIVERC++\UNIVERC++\MAIN.CPP
