^C:\USERS\USER\SOURCE\REPOS\UNIVERC++\UNIVERC++\DEBUG\LIST.OBJ|C:\USERS\USER\SOURCE\REPOS\UNIVERC++\UNIVERC++\DEBUG\MAIN.OBJ
C:\USERS\USER\SOURCE\REPOS\UNIVERC++\DEBUG\UNIVERC++.EXE
C:\USERS\USER\SOURCE\REPOS\UNIVERC++\DEBUG\UNIVERC++.ILK
C:\USERS\USER\SOURCE\REPOS\UNIVERC++\DEBUG\UNIVERC++.PDB
